﻿[
  {
    "Id": "345",
    "PatientId":"54682397106",
    "HospitalisationCause": "lalala",
    "StartDateTime": "2020-07-01T10:00:00",
    "EndDateTime": "2020-07-07T10:30:00",
    "RoomId": "1"
  },
  {
    "Id": "1234567891234",
    "PatientId":"1234567891234",
    "HospitalisationCause": "lalala",
    "StartDateTime": "2020-07-01T10:00:00",
    "EndDateTime": "2020-07-07T10:30:00",
    "RoomId": "167"
  }
]