[
  {
    "Id": "2",
    "Description": "dd",
    "StartDateTime": "2020-06-05T11:00:00",
    "EndDateTime": "2020-06-09T13:00:00",
    "RoomId": "S202"
  },
  {
    "Id": "3",
    "Description": "dd",
    "StartDateTime": "2020-06-27T10:30:00",
    "EndDateTime": "2020-06-27T13:00:00",
    "RoomId": "S202"
  },
  {
    "Id": "1",
    "Description": "kkkkjknjkklmm",
    "StartDateTime": "2020-06-13T00:00:00",
    "EndDateTime": "2020-06-24T01:00:00",
    "RoomId": "S101"
  },
  {
    "Id": "6235",
    "Description": "",
    "StartDateTime": "2020-06-29T10:30:00",
    "EndDateTime": "2020-06-29T13:00:00",
    "RoomId": "S202"
  }
]